<?xml version="1.0" encoding="UTF-8"?>
<testng-results ignored="0" total="11" passed="11" failed="0" skipped="0">
  <reporter-output>
  </reporter-output>
  <suite started-at="2021-06-03T14:24:34 IST" name="Suite" finished-at="2021-06-03T14:31:19 IST" duration-ms="404670">
    <groups>
    </groups>
    <test started-at="2021-06-03T14:24:34 IST" name="Test" finished-at="2021-06-03T14:26:43 IST" duration-ms="128123">
      <class name="com.mindtree.runner.SearchScript">
        <test-method is-config="true" signature="data()[pri:0, instance:com.mindtree.runner.SearchScript@17503f6b]" started-at="2021-06-03T14:24:34 IST" name="data" finished-at="2021-06-03T14:24:35 IST" duration-ms="231" status="PASS">
          <reporter-output>
          </reporter-output>
        </test-method> <!-- data -->
        <test-method is-config="true" signature="driver()[pri:0, instance:com.mindtree.runner.SearchScript@17503f6b]" started-at="2021-06-03T14:24:35 IST" name="driver" finished-at="2021-06-03T14:24:43 IST" duration-ms="8601" status="PASS">
          <reporter-output>
          </reporter-output>
        </test-method> <!-- driver -->
        <test-method is-config="true" signature="createTest(java.lang.reflect.Method)[pri:0, instance:com.mindtree.runner.SearchScript@17503f6b]" started-at="2021-06-03T14:24:43 IST" name="createTest" finished-at="2021-06-03T14:24:43 IST" duration-ms="0" status="PASS">
          <params>
            <param index="0">
              <value>
                <![CDATA[public void com.mindtree.runner.SearchScript.searchItem(java.lang.String)]]>
              </value>
            </param>
          </params>
          <reporter-output>
          </reporter-output>
        </test-method> <!-- createTest -->
        <test-method signature="searchItem(java.lang.String)[pri:1, instance:com.mindtree.runner.SearchScript@17503f6b]" started-at="2021-06-03T14:24:43 IST" name="searchItem" data-provider="searchItem" finished-at="2021-06-03T14:24:48 IST" duration-ms="4340" status="PASS">
          <params>
            <param index="0">
              <value>
                <![CDATA[oil]]>
              </value>
            </param>
          </params>
          <reporter-output>
          </reporter-output>
        </test-method> <!-- searchItem -->
        <test-method is-config="true" signature="result(org.testng.ITestResult)[pri:0, instance:com.mindtree.runner.SearchScript@17503f6b]" started-at="2021-06-03T14:24:48 IST" name="result" finished-at="2021-06-03T14:24:48 IST" duration-ms="477" status="PASS">
          <params>
            <param index="0">
              <value>
                <![CDATA[[TestResult name=searchItem status=SUCCESS method=SearchScript.searchItem(java.lang.String)[pri:1, instance:com.mindtree.runner.SearchScript@17503f6b] output={null}]]]>
              </value>
            </param>
          </params>
          <reporter-output>
          </reporter-output>
        </test-method> <!-- result -->
        <test-method is-config="true" signature="createTest(java.lang.reflect.Method)[pri:0, instance:com.mindtree.runner.SearchScript@17503f6b]" started-at="2021-06-03T14:24:48 IST" name="createTest" finished-at="2021-06-03T14:24:48 IST" duration-ms="1" status="PASS">
          <params>
            <param index="0">
              <value>
                <![CDATA[public void com.mindtree.runner.SearchScript.acceptCache()]]>
              </value>
            </param>
          </params>
          <reporter-output>
          </reporter-output>
        </test-method> <!-- createTest -->
        <test-method signature="acceptCache()[pri:2, instance:com.mindtree.runner.SearchScript@17503f6b]" started-at="2021-06-03T14:24:48 IST" name="acceptCache" finished-at="2021-06-03T14:24:48 IST" duration-ms="188" status="PASS">
          <reporter-output>
          </reporter-output>
        </test-method> <!-- acceptCache -->
        <test-method is-config="true" signature="result(org.testng.ITestResult)[pri:0, instance:com.mindtree.runner.SearchScript@17503f6b]" started-at="2021-06-03T14:24:48 IST" name="result" finished-at="2021-06-03T14:24:49 IST" duration-ms="701" status="PASS">
          <params>
            <param index="0">
              <value>
                <![CDATA[[TestResult name=acceptCache status=SUCCESS method=SearchScript.acceptCache()[pri:2, instance:com.mindtree.runner.SearchScript@17503f6b] output={null}]]]>
              </value>
            </param>
          </params>
          <reporter-output>
          </reporter-output>
        </test-method> <!-- result -->
        <test-method is-config="true" signature="createTest(java.lang.reflect.Method)[pri:0, instance:com.mindtree.runner.SearchScript@17503f6b]" started-at="2021-06-03T14:24:49 IST" name="createTest" finished-at="2021-06-03T14:24:49 IST" duration-ms="1" status="PASS">
          <params>
            <param index="0">
              <value>
                <![CDATA[public void com.mindtree.runner.SearchScript.selectItem()]]>
              </value>
            </param>
          </params>
          <reporter-output>
          </reporter-output>
        </test-method> <!-- createTest -->
        <test-method signature="selectItem()[pri:3, instance:com.mindtree.runner.SearchScript@17503f6b]" started-at="2021-06-03T14:24:49 IST" name="selectItem" finished-at="2021-06-03T14:25:27 IST" duration-ms="38053" status="PASS">
          <reporter-output>
          </reporter-output>
        </test-method> <!-- selectItem -->
        <test-method is-config="true" signature="result(org.testng.ITestResult)[pri:0, instance:com.mindtree.runner.SearchScript@17503f6b]" started-at="2021-06-03T14:25:27 IST" name="result" finished-at="2021-06-03T14:25:27 IST" duration-ms="395" status="PASS">
          <params>
            <param index="0">
              <value>
                <![CDATA[[TestResult name=selectItem status=SUCCESS method=SearchScript.selectItem()[pri:3, instance:com.mindtree.runner.SearchScript@17503f6b] output={null}]]]>
              </value>
            </param>
          </params>
          <reporter-output>
          </reporter-output>
        </test-method> <!-- result -->
        <test-method is-config="true" signature="createTest(java.lang.reflect.Method)[pri:0, instance:com.mindtree.runner.SearchScript@17503f6b]" started-at="2021-06-03T14:25:27 IST" name="createTest" finished-at="2021-06-03T14:25:27 IST" duration-ms="0" status="PASS">
          <params>
            <param index="0">
              <value>
                <![CDATA[public void com.mindtree.runner.SearchScript.gotOffer()]]>
              </value>
            </param>
          </params>
          <reporter-output>
          </reporter-output>
        </test-method> <!-- createTest -->
        <test-method signature="gotOffer()[pri:4, instance:com.mindtree.runner.SearchScript@17503f6b]" started-at="2021-06-03T14:25:27 IST" name="gotOffer" finished-at="2021-06-03T14:26:09 IST" duration-ms="41363" status="PASS">
          <reporter-output>
          </reporter-output>
        </test-method> <!-- gotOffer -->
        <test-method is-config="true" signature="result(org.testng.ITestResult)[pri:0, instance:com.mindtree.runner.SearchScript@17503f6b]" started-at="2021-06-03T14:26:09 IST" name="result" finished-at="2021-06-03T14:26:09 IST" duration-ms="184" status="PASS">
          <params>
            <param index="0">
              <value>
                <![CDATA[[TestResult name=gotOffer status=SUCCESS method=SearchScript.gotOffer()[pri:4, instance:com.mindtree.runner.SearchScript@17503f6b] output={null}]]]>
              </value>
            </param>
          </params>
          <reporter-output>
          </reporter-output>
        </test-method> <!-- result -->
        <test-method is-config="true" signature="tearDown()[pri:0, instance:com.mindtree.runner.SearchScript@17503f6b]" started-at="2021-06-03T14:26:09 IST" name="tearDown" finished-at="2021-06-03T14:26:43 IST" duration-ms="33548" status="PASS">
          <reporter-output>
          </reporter-output>
        </test-method> <!-- tearDown -->
      </class> <!-- com.mindtree.runner.SearchScript -->
    </test> <!-- Test -->
    <test started-at="2021-06-03T14:26:43 IST" name="Test1" finished-at="2021-06-03T14:30:42 IST" duration-ms="239337">
      <class name="com.mindtree.runner.OverWeightScript">
        <test-method is-config="true" signature="data()[pri:0, instance:com.mindtree.runner.OverWeightScript@34129c78]" started-at="2021-06-03T14:26:43 IST" name="data" finished-at="2021-06-03T14:26:43 IST" duration-ms="2" status="PASS">
          <reporter-output>
          </reporter-output>
        </test-method> <!-- data -->
        <test-method is-config="true" signature="driver()[pri:0, instance:com.mindtree.runner.OverWeightScript@34129c78]" started-at="2021-06-03T14:26:43 IST" name="driver" finished-at="2021-06-03T14:26:58 IST" duration-ms="15691" status="PASS">
          <reporter-output>
          </reporter-output>
        </test-method> <!-- driver -->
        <test-method signature="selectPreSchool()[pri:1, instance:com.mindtree.runner.OverWeightScript@34129c78]" started-at="2021-06-03T14:26:58 IST" name="selectPreSchool" finished-at="2021-06-03T14:27:03 IST" duration-ms="4384" status="PASS">
          <reporter-output>
          </reporter-output>
        </test-method> <!-- selectPreSchool -->
        <test-method is-config="true" signature="createTest(java.lang.reflect.Method)[pri:0, instance:com.mindtree.runner.OverWeightScript@34129c78]" started-at="2021-06-03T14:26:58 IST" name="createTest" finished-at="2021-06-03T14:26:58 IST" duration-ms="0" status="PASS">
          <params>
            <param index="0">
              <value>
                <![CDATA[public void com.mindtree.runner.OverWeightScript.selectPreSchool()]]>
              </value>
            </param>
          </params>
          <reporter-output>
          </reporter-output>
        </test-method> <!-- createTest -->
        <test-method is-config="true" signature="result(org.testng.ITestResult)[pri:0, instance:com.mindtree.runner.OverWeightScript@34129c78]" started-at="2021-06-03T14:27:03 IST" name="result" finished-at="2021-06-03T14:27:03 IST" duration-ms="681" status="PASS">
          <params>
            <param index="0">
              <value>
                <![CDATA[[TestResult name=selectPreSchool status=SUCCESS method=OverWeightScript.selectPreSchool()[pri:1, instance:com.mindtree.runner.OverWeightScript@34129c78] output={null}]]]>
              </value>
            </param>
          </params>
          <reporter-output>
          </reporter-output>
        </test-method> <!-- result -->
        <test-method signature="acceptCache()[pri:2, instance:com.mindtree.runner.OverWeightScript@34129c78]" started-at="2021-06-03T14:27:03 IST" name="acceptCache" finished-at="2021-06-03T14:27:03 IST" duration-ms="153" status="PASS">
          <reporter-output>
          </reporter-output>
        </test-method> <!-- acceptCache -->
        <test-method is-config="true" signature="createTest(java.lang.reflect.Method)[pri:0, instance:com.mindtree.runner.OverWeightScript@34129c78]" started-at="2021-06-03T14:27:03 IST" name="createTest" finished-at="2021-06-03T14:27:03 IST" duration-ms="0" status="PASS">
          <params>
            <param index="0">
              <value>
                <![CDATA[public void com.mindtree.runner.OverWeightScript.acceptCache()]]>
              </value>
            </param>
          </params>
          <reporter-output>
          </reporter-output>
        </test-method> <!-- createTest -->
        <test-method is-config="true" signature="result(org.testng.ITestResult)[pri:0, instance:com.mindtree.runner.OverWeightScript@34129c78]" started-at="2021-06-03T14:27:03 IST" name="result" finished-at="2021-06-03T14:27:04 IST" duration-ms="522" status="PASS">
          <params>
            <param index="0">
              <value>
                <![CDATA[[TestResult name=acceptCache status=SUCCESS method=OverWeightScript.acceptCache()[pri:2, instance:com.mindtree.runner.OverWeightScript@34129c78] output={null}]]]>
              </value>
            </param>
          </params>
          <reporter-output>
          </reporter-output>
        </test-method> <!-- result -->
        <test-method is-config="true" signature="createTest(java.lang.reflect.Method)[pri:0, instance:com.mindtree.runner.OverWeightScript@34129c78]" started-at="2021-06-03T14:27:04 IST" name="createTest" finished-at="2021-06-03T14:27:04 IST" duration-ms="0" status="PASS">
          <params>
            <param index="0">
              <value>
                <![CDATA[public void com.mindtree.runner.OverWeightScript.diestAndNutrition()]]>
              </value>
            </param>
          </params>
          <reporter-output>
          </reporter-output>
        </test-method> <!-- createTest -->
        <test-method signature="diestAndNutrition()[pri:3, instance:com.mindtree.runner.OverWeightScript@34129c78]" started-at="2021-06-03T14:27:04 IST" name="diestAndNutrition" finished-at="2021-06-03T14:29:20 IST" duration-ms="136309" status="PASS">
          <reporter-output>
          </reporter-output>
        </test-method> <!-- diestAndNutrition -->
        <test-method is-config="true" signature="result(org.testng.ITestResult)[pri:0, instance:com.mindtree.runner.OverWeightScript@34129c78]" started-at="2021-06-03T14:29:20 IST" name="result" finished-at="2021-06-03T14:29:21 IST" duration-ms="402" status="PASS">
          <params>
            <param index="0">
              <value>
                <![CDATA[[TestResult name=diestAndNutrition status=SUCCESS method=OverWeightScript.diestAndNutrition()[pri:3, instance:com.mindtree.runner.OverWeightScript@34129c78] output={null}]]]>
              </value>
            </param>
          </params>
          <reporter-output>
          </reporter-output>
        </test-method> <!-- result -->
        <test-method is-config="true" signature="createTest(java.lang.reflect.Method)[pri:0, instance:com.mindtree.runner.OverWeightScript@34129c78]" started-at="2021-06-03T14:29:21 IST" name="createTest" finished-at="2021-06-03T14:29:21 IST" duration-ms="0" status="PASS">
          <params>
            <param index="0">
              <value>
                <![CDATA[public void com.mindtree.runner.OverWeightScript.overweight()]]>
              </value>
            </param>
          </params>
          <reporter-output>
          </reporter-output>
        </test-method> <!-- createTest -->
        <test-method signature="overweight()[pri:4, instance:com.mindtree.runner.OverWeightScript@34129c78]" started-at="2021-06-03T14:29:21 IST" name="overweight" finished-at="2021-06-03T14:30:31 IST" duration-ms="69982" status="PASS">
          <reporter-output>
          </reporter-output>
        </test-method> <!-- overweight -->
        <test-method is-config="true" signature="result(org.testng.ITestResult)[pri:0, instance:com.mindtree.runner.OverWeightScript@34129c78]" started-at="2021-06-03T14:30:31 IST" name="result" finished-at="2021-06-03T14:30:31 IST" duration-ms="401" status="PASS">
          <params>
            <param index="0">
              <value>
                <![CDATA[[TestResult name=overweight status=SUCCESS method=OverWeightScript.overweight()[pri:4, instance:com.mindtree.runner.OverWeightScript@34129c78] output={null}]]]>
              </value>
            </param>
          </params>
          <reporter-output>
          </reporter-output>
        </test-method> <!-- result -->
        <test-method is-config="true" signature="tearDown()[pri:0, instance:com.mindtree.runner.OverWeightScript@34129c78]" started-at="2021-06-03T14:30:31 IST" name="tearDown" finished-at="2021-06-03T14:30:42 IST" duration-ms="10807" status="PASS">
          <reporter-output>
          </reporter-output>
        </test-method> <!-- tearDown -->
      </class> <!-- com.mindtree.runner.OverWeightScript -->
    </test> <!-- Test1 -->
    <test started-at="2021-06-03T14:30:42 IST" name="Test2" finished-at="2021-06-03T14:31:19 IST" duration-ms="37179">
      <class name="com.mindtree.runner.BabyScript">
        <test-method is-config="true" signature="data()[pri:0, instance:com.mindtree.runner.BabyScript@3f1d2e23]" started-at="2021-06-03T14:30:42 IST" name="data" finished-at="2021-06-03T14:30:42 IST" duration-ms="4" status="PASS">
          <reporter-output>
          </reporter-output>
        </test-method> <!-- data -->
        <test-method is-config="true" signature="driver()[pri:0, instance:com.mindtree.runner.BabyScript@3f1d2e23]" started-at="2021-06-03T14:30:42 IST" name="driver" finished-at="2021-06-03T14:30:48 IST" duration-ms="6187" status="PASS">
          <reporter-output>
          </reporter-output>
        </test-method> <!-- driver -->
        <test-method is-config="true" signature="createTest(java.lang.reflect.Method)[pri:0, instance:com.mindtree.runner.BabyScript@3f1d2e23]" started-at="2021-06-03T14:30:48 IST" name="createTest" finished-at="2021-06-03T14:30:48 IST" duration-ms="1" status="PASS">
          <params>
            <param index="0">
              <value>
                <![CDATA[public void com.mindtree.runner.BabyScript.selectBabyLink()]]>
              </value>
            </param>
          </params>
          <reporter-output>
          </reporter-output>
        </test-method> <!-- createTest -->
        <test-method signature="selectBabyLink()[pri:1, instance:com.mindtree.runner.BabyScript@3f1d2e23]" started-at="2021-06-03T14:30:48 IST" name="selectBabyLink" finished-at="2021-06-03T14:30:54 IST" duration-ms="5536" status="PASS">
          <reporter-output>
          </reporter-output>
        </test-method> <!-- selectBabyLink -->
        <test-method is-config="true" signature="result(org.testng.ITestResult)[pri:0, instance:com.mindtree.runner.BabyScript@3f1d2e23]" started-at="2021-06-03T14:30:54 IST" name="result" finished-at="2021-06-03T14:30:54 IST" duration-ms="808" status="PASS">
          <params>
            <param index="0">
              <value>
                <![CDATA[[TestResult name=selectBabyLink status=SUCCESS method=BabyScript.selectBabyLink()[pri:1, instance:com.mindtree.runner.BabyScript@3f1d2e23] output={null}]]]>
              </value>
            </param>
          </params>
          <reporter-output>
          </reporter-output>
        </test-method> <!-- result -->
        <test-method signature="sleepAndCryBaby()[pri:2, instance:com.mindtree.runner.BabyScript@3f1d2e23]" started-at="2021-06-03T14:30:54 IST" name="sleepAndCryBaby" finished-at="2021-06-03T14:30:59 IST" duration-ms="4098" status="PASS">
          <reporter-output>
          </reporter-output>
        </test-method> <!-- sleepAndCryBaby -->
        <test-method is-config="true" signature="createTest(java.lang.reflect.Method)[pri:0, instance:com.mindtree.runner.BabyScript@3f1d2e23]" started-at="2021-06-03T14:30:54 IST" name="createTest" finished-at="2021-06-03T14:30:54 IST" duration-ms="0" status="PASS">
          <params>
            <param index="0">
              <value>
                <![CDATA[public void com.mindtree.runner.BabyScript.sleepAndCryBaby()]]>
              </value>
            </param>
          </params>
          <reporter-output>
          </reporter-output>
        </test-method> <!-- createTest -->
        <test-method is-config="true" signature="result(org.testng.ITestResult)[pri:0, instance:com.mindtree.runner.BabyScript@3f1d2e23]" started-at="2021-06-03T14:30:59 IST" name="result" finished-at="2021-06-03T14:30:59 IST" duration-ms="458" status="PASS">
          <params>
            <param index="0">
              <value>
                <![CDATA[[TestResult name=sleepAndCryBaby status=SUCCESS method=BabyScript.sleepAndCryBaby()[pri:2, instance:com.mindtree.runner.BabyScript@3f1d2e23] output={null}]]]>
              </value>
            </param>
          </params>
          <reporter-output>
          </reporter-output>
        </test-method> <!-- result -->
        <test-method is-config="true" signature="createTest(java.lang.reflect.Method)[pri:0, instance:com.mindtree.runner.BabyScript@3f1d2e23]" started-at="2021-06-03T14:30:59 IST" name="createTest" finished-at="2021-06-03T14:30:59 IST" duration-ms="1" status="PASS">
          <params>
            <param index="0">
              <value>
                <![CDATA[public void com.mindtree.runner.BabyScript.sleepingFact()]]>
              </value>
            </param>
          </params>
          <reporter-output>
          </reporter-output>
        </test-method> <!-- createTest -->
        <test-method signature="sleepingFact()[pri:3, instance:com.mindtree.runner.BabyScript@3f1d2e23]" started-at="2021-06-03T14:30:59 IST" name="sleepingFact" finished-at="2021-06-03T14:31:15 IST" duration-ms="16212" status="PASS">
          <reporter-output>
          </reporter-output>
        </test-method> <!-- sleepingFact -->
        <test-method is-config="true" signature="result(org.testng.ITestResult)[pri:0, instance:com.mindtree.runner.BabyScript@3f1d2e23]" started-at="2021-06-03T14:31:15 IST" name="result" finished-at="2021-06-03T14:31:16 IST" duration-ms="400" status="PASS">
          <params>
            <param index="0">
              <value>
                <![CDATA[[TestResult name=sleepingFact status=SUCCESS method=BabyScript.sleepingFact()[pri:3, instance:com.mindtree.runner.BabyScript@3f1d2e23] output={null}]]]>
              </value>
            </param>
          </params>
          <reporter-output>
          </reporter-output>
        </test-method> <!-- result -->
        <test-method is-config="true" signature="tearDown()[pri:0, instance:com.mindtree.runner.BabyScript@3f1d2e23]" started-at="2021-06-03T14:31:16 IST" name="tearDown" finished-at="2021-06-03T14:31:19 IST" duration-ms="3471" status="PASS">
          <reporter-output>
          </reporter-output>
        </test-method> <!-- tearDown -->
      </class> <!-- com.mindtree.runner.BabyScript -->
    </test> <!-- Test2 -->
  </suite> <!-- Suite -->
</testng-results>
