C:\Users\rahth\OneDrive\Desktop\Hybrid Challenge 3 June\Hybrid_Challenge\src\main\java\com\mindtree\utility\ExcelReader.java
C:\Users\rahth\OneDrive\Desktop\Hybrid Challenge 3 June\Hybrid_Challenge\src\main\java\com\mindtree\runner\SearchScript.java
C:\Users\rahth\OneDrive\Desktop\Hybrid Challenge 3 June\Hybrid_Challenge\src\main\java\com\mindtree\utility\ExtentReport.java
C:\Users\rahth\OneDrive\Desktop\Hybrid Challenge 3 June\Hybrid_Challenge\src\main\java\com\mindtree\utility\Log.java
C:\Users\rahth\OneDrive\Desktop\Hybrid Challenge 3 June\Hybrid_Challenge\src\main\java\com\mindtree\reusable\ReusableMethod.java
C:\Users\rahth\OneDrive\Desktop\Hybrid Challenge 3 June\Hybrid_Challenge\src\main\java\com\mindtree\runner\BaseClass.java
C:\Users\rahth\OneDrive\Desktop\Hybrid Challenge 3 June\Hybrid_Challenge\src\main\java\com\mindtree\uistore\SearchUI.java
C:\Users\rahth\OneDrive\Desktop\Hybrid Challenge 3 June\Hybrid_Challenge\src\main\java\com\mindtree\uistore\BabyUI.java
C:\Users\rahth\OneDrive\Desktop\Hybrid Challenge 3 June\Hybrid_Challenge\src\main\java\com\mindtree\runner\BabyScript.java
C:\Users\rahth\OneDrive\Desktop\Hybrid Challenge 3 June\Hybrid_Challenge\src\main\java\com\mindtree\runner\OverWeightScript.java
C:\Users\rahth\OneDrive\Desktop\Hybrid Challenge 3 June\Hybrid_Challenge\src\main\java\com\mindtree\uistore\PreSchoolUI.java
C:\Users\rahth\OneDrive\Desktop\Hybrid Challenge 3 June\Hybrid_Challenge\src\main\java\com\mindtree\utility\PropertyFileReader.java
C:\Users\rahth\OneDrive\Desktop\Hybrid Challenge 3 June\Hybrid_Challenge\src\main\java\com\mindtree\pageobject\Search.java
C:\Users\rahth\OneDrive\Desktop\Hybrid Challenge 3 June\Hybrid_Challenge\src\main\java\com\mindtree\reusable\ReusableComponent.java
C:\Users\rahth\OneDrive\Desktop\Hybrid Challenge 3 June\Hybrid_Challenge\src\main\java\com\mindtree\pageobject\Baby.java
C:\Users\rahth\OneDrive\Desktop\Hybrid Challenge 3 June\Hybrid_Challenge\src\main\java\com\mindtree\pageobject\PreSchool.java
C:\Users\rahth\OneDrive\Desktop\Hybrid Challenge 3 June\Hybrid_Challenge\src\main\java\com\mindtree\utility\AutoOpen.java
